{
 "name": "Risk",
 "children": [
  {
     "name": "People",
     "children": [
      {"name": "Person 121"},
      {"name": "Person 122"},
      {"name": "Person 123" },
      {"name": "Person 124"}
      ]
   },
   {
    "name": "Places",
    "children": [
     {"name": "Place 221"},
     {"name": "Place 222"},
     {"name": "Place 223"},
     {"name": "Place 224"},
     {"name": "Place 225"}
     ]
    }
   ]
  }
